%YAML 1.1
%TAG !u! tag:unity3d.com,2011:
--- !u!221 &22100000
AnimatorOverrideController:
  m_ObjectHideFlags: 0
  m_CorrespondingSourceObject: {fileID: 0}
  m_PrefabInstance: {fileID: 0}
  m_PrefabAsset: {fileID: 0}
  m_Name: Animator Override Controller Enemy 103
  m_Controller: {fileID: 9100000, guid: c27038117c6e41045a5b500328b58be8, type: 2}
  m_Clips:
  - m_OriginalClip: {fileID: 7400000, guid: 8151a21a86e8443db8efcec43314dece, type: 2}
    m_OverrideClip: {fileID: 7400000, guid: fe7c31078588e4a4e9e4a8e307e19c41, type: 2}
  - m_OriginalClip: {fileID: 7400000, guid: 6d1eca749f9f840299a309e3fd0302af, type: 2}
    m_OverrideClip: {fileID: 7400000, guid: fedfefddf75d346bb9c0500865ad29e7, type: 2}
  - m_OriginalClip: {fileID: 7400000, guid: a16c2646085174726a41a2900d723bdd, type: 2}
    m_OverrideClip: {fileID: 7400000, guid: 3e5a113eaad9f42f18c1c162fc819399, type: 2}
  - m_OriginalClip: {fileID: 7400000, guid: 6fbd3b4272fc84993b8317d782d39f77, type: 2}
    m_OverrideClip: {fileID: 7400000, guid: 3e5a113eaad9f42f18c1c162fc819399, type: 2}
